6.9$\pm$12.1 & 476680.2 & 7.3 & 40000.0 & 1079.7\\
12.7$\pm$18.1 & 364796.0 & 10.4 & 40000.0 & 135.6\\
4.5$\pm$2.2 & 87373.0 & 4.7 & 40000.0 & 125.6\\
8.7$\pm$0.8 & 22060.7 & 7.7 & 40000.0 & 187.1\\
23.0$\pm$3.3 & 40045.2 & 15.9 & 40000.0 & 216.2\\
3.8$\pm$1.3 & 51376.2 & 4.2 & 40000.0 & 142.7\\
0.0$\pm$0.0 & 1.0 & 1.0 & 40000.0 & 1404.7\\
40.3$\pm$594.6 & 19766008.0 & 38.2 & 40000.0 & 129.3\\
3.4$\pm$0.3 & 9026.4 & 3.6 & 40000.0 & 211.5\\
3.8$\pm$1.3 & 51376.2 & 4.2 & 40000.0 & 142.7\\
13.3$\pm$19.1 & 618786.9 & 12.0 & 40000.0 & 131.1\\
8.6$\pm$14.9 & 562022.4 & 8.8 & 40000.0 & 253.4\\
19.6$\pm$2.8 & 42168.8 & 14.3 & 40000.0 & 214.6\\
1.6$\pm$0.0 & 1968.4 & 1.9 & 40000.0 & 139.9\\
6.7$\pm$0.6 & 23418.5 & 5.9 & 40000.0 & 258.9\\
5.2$\pm$1.8 & 73421.2 & 4.6 & 40000.0 & 170.9\\
22.4$\pm$249.9 & 3429364.2 & 15.6 & 40000.0 & 304.0\\
0.7$\pm$0.0 & 1161.8 & 1.3 & 40000.0 & 135.8\\
4.8$\pm$0.3 & 12383.5 & 4.7 & 40000.0 & 244.5\\
39.9$\pm$413.6 & 16169382.0 & 35.1 & 40000.0 & 127.0\\
